"id","day","dc","dmc","ffmc","isi","month","rh","temp"
"23"," sun"," 200.0"," 96.3"," 94.3"," 56.1"," jun"," 44"," 21.0"
"114"," mon"," 724.3"," 78.5"," 91.8"," 9.2"," sep"," 35"," 18.9"
"53"," wed"," 654.1"," 111.2"," 92.1"," 9.6"," aug"," 42"," 20.4"
"110"," mon"," 709.9"," 91.8"," 88.6"," 7.1"," sep"," 56"," 17.4"
"91"," sat"," 624.2"," 96.9"," 90.2"," 8.9"," aug"," 59"," 14.7"
"128"," fri"," 728.6"," 149.3"," 93.5"," 8.1"," sep"," 43"," 17.2"
"363"," fri"," 732.3"," 55.2"," 88.2"," 11.6"," sep"," 64"," 15.2"
"251"," wed"," 666.7"," 157.3"," 93.1"," 13.5"," aug"," 25"," 26.8"
"310"," sun"," 758.1"," 105.8"," 92.4"," 9.9"," sep"," 27"," 24.9"
"247"," sun"," 700.7"," 175.1"," 91.8"," 13.8"," aug"," 39"," 25.7"
"214"," mon"," 103.8"," 52.2"," 87.6"," 5.0"," mar"," 46"," 11.0"
"429"," thu"," 698.6"," 222.4"," 94.8"," 13.9"," aug"," 34"," 26.2"
"117"," sat"," 80.8"," 35.8"," 91.7"," 7.8"," mar"," 30"," 11.6"
"144"," sat"," 296.3"," 51.3"," 90.0"," 8.7"," jul"," 53"," 16.6"
"120"," thu"," 466.6"," 75.3"," 93.0"," 7.7"," aug"," 36"," 19.6"
"504"," wed"," 689.1"," 139.4"," 94.5"," 20.0"," aug"," 30"," 29.2"
"219"," wed"," 699.6"," 133.3"," 92.9"," 9.2"," sep"," 19"," 19.4"
"475"," thu"," 316.7"," 103.8"," 93.0"," 10.8"," jun"," 35"," 26.4"
"140"," tue"," 692.6"," 129.5"," 91.0"," 7.0"," sep"," 38"," 21.7"
"308"," sun"," 714.3"," 84.1"," 89.6"," 5.7"," sep"," 35"," 23.8"
"483"," sun"," 587.1"," 130.3"," 94.9"," 14.1"," aug"," 40"," 23.4"
"55"," thu"," 661.3"," 114.3"," 91.7"," 6.3"," aug"," 45"," 17.6"
"441"," fri"," 855.3"," 290.0"," 90.3"," 7.4"," sep"," 58"," 16.2"
"255"," thu"," 621.7"," 138.1"," 91.6"," 6.3"," aug"," 41"," 18.9"
"331"," sat"," 751.5"," 102.3"," 92.2"," 8.4"," sep"," 27"," 24.2"
"129"," wed"," 673.8"," 37.9"," 91.4"," 5.2"," oct"," 46"," 15.9"
"476"," thu"," 350.2"," 121.7"," 93.7"," 18.0"," jun"," 40"," 22.7"
"438"," sat"," 768.4"," 253.6"," 89.4"," 9.7"," aug"," 73"," 14.2"
"324"," thu"," 822.8"," 136.9"," 90.7"," 6.8"," sep"," 39"," 12.9"
"439"," sat"," 715.1"," 231.1"," 93.7"," 8.4"," aug"," 53"," 23.6"
"373"," sun"," 664.5"," 203.2"," 92.0"," 8.1"," aug"," 75"," 10.4"
"332"," sat"," 795.3"," 124.4"," 91.2"," 8.5"," sep"," 28"," 21.5"
"33"," fri"," 706.8"," 69.7"," 88.6"," 5.8"," sep"," 37"," 20.6"
"132"," mon"," 64.7"," 23.9"," 87.2"," 4.1"," mar"," 39"," 14.0"
"380"," sun"," 171.4"," 1.1"," 18.7"," 0.0"," jan"," 100"," 5.2"
"340"," mon"," 764.0"," 108.4"," 91.6"," 6.2"," sep"," 41"," 20.4"
"501"," tue"," 671.2"," 181.1"," 96.1"," 14.3"," aug"," 65"," 21.6"
"423"," sun"," 795.9"," 263.1"," 88.9"," 5.2"," jul"," 27"," 29.3"
"274"," sun"," 353.5"," 27.2"," 84.4"," 6.8"," dec"," 57"," 4.8"
"185"," fri"," 586.7"," 135.7"," 93.9"," 15.1"," aug"," 34"," 20.8"
"5"," sun"," 102.2"," 51.3"," 89.3"," 9.6"," mar"," 99"," 11.4"
"28"," mon"," 686.5"," 126.5"," 90.9"," 7.0"," sep"," 48"," 19.4"
"369"," sat"," 744.4"," 94.3"," 91.2"," 8.4"," sep"," 47"," 16.8"
"420"," sun"," 613.0"," 181.3"," 91.6"," 7.6"," aug"," 36"," 24.8"
"277"," mon"," 349.7"," 25.4"," 85.4"," 2.6"," dec"," 21"," 4.6"
"105"," sat"," 9.3"," 3.7"," 82.1"," 2.9"," jan"," 78"," 5.3"
"313"," sun"," 706.6"," 46.2"," 50.4"," 0.4"," sep"," 78"," 12.2"
"123"," sun"," 680.7"," 124.1"," 92.4"," 8.5"," sep"," 42"," 22.5"
"477"," thu"," 395.0"," 85.3"," 93.5"," 9.9"," jul"," 28"," 27.2"
"42"," sat"," 624.2"," 96.9"," 90.2"," 8.9"," aug"," 42"," 18.4"
"320"," thu"," 783.5"," 119.0"," 92.8"," 7.5"," sep"," 28"," 21.6"
"153"," sat"," 424.1"," 51.2"," 90.1"," 6.2"," jul"," 43"," 24.6"
"178"," sun"," 631.2"," 99.6"," 90.2"," 6.3"," aug"," 44"," 19.2"
"323"," thu"," 783.5"," 119.0"," 92.8"," 7.5"," sep"," 28"," 16.8"
"248"," wed"," 503.6"," 91.6"," 92.2"," 9.6"," aug"," 70"," 20.7"
"50"," mon"," 103.8"," 52.2"," 87.6"," 5.0"," mar"," 46"," 11.0"
"514"," sun"," 665.6"," 56.7"," 81.6"," 1.9"," aug"," 71"," 21.9"
"95"," mon"," 638.8"," 103.2"," 91.1"," 5.8"," aug"," 22"," 23.4"
"485"," sun"," 587.1"," 130.3"," 94.9"," 14.1"," aug"," 25"," 33.1"
"88"," thu"," 706.4"," 137.0"," 92.9"," 9.2"," sep"," 34"," 22.4"
"82"," sun"," 631.2"," 99.6"," 90.2"," 6.3"," aug"," 44"," 17.9"
"377"," mon"," 672.6"," 207.0"," 92.1"," 8.2"," aug"," 54"," 21.1"
"49"," mon"," 64.7"," 23.9"," 87.2"," 4.1"," mar"," 35"," 11.8"
"10"," sat"," 698.6"," 88.0"," 92.5"," 7.1"," sep"," 40"," 22.8"
"465"," tue"," 16.2"," 4.4"," 75.1"," 1.9"," feb"," 77"," 5.1"
"467"," mon"," 36.9"," 15.1"," 87.2"," 7.1"," mar"," 45"," 10.2"
"225"," wed"," 735.7"," 82.9"," 90.1"," 6.2"," sep"," 57"," 15.4"
"137"," sun"," 680.7"," 124.1"," 92.4"," 8.5"," sep"," 58"," 17.2"
"382"," thu"," 643.0"," 194.1"," 90.7"," 6.8"," aug"," 63"," 16.2"
"398"," sun"," 613.0"," 181.3"," 91.6"," 7.6"," aug"," 33"," 24.3"
"83"," tue"," 647.1"," 108.3"," 94.8"," 17.0"," aug"," 51"," 18.6"
"264"," fri"," 629.1"," 141.1"," 91.1"," 7.1"," aug"," 39"," 19.3"
"245"," sun"," 700.7"," 175.1"," 91.8"," 13.8"," aug"," 54"," 22.4"
"461"," sat"," 715.1"," 231.1"," 93.7"," 8.4"," aug"," 64"," 18.9"
"361"," fri"," 789.7"," 122.0"," 92.5"," 10.2"," sep"," 42"," 18.4"
"463"," sun"," 825.1"," 276.3"," 91.0"," 7.1"," sep"," 76"," 14.5"
"241"," wed"," 43.5"," 17.2"," 88.0"," 3.8"," apr"," 51"," 15.2"
"286"," sun"," 411.8"," 169.7"," 93.9"," 12.3"," jul"," 40"," 23.4"
"374"," thu"," 698.6"," 222.4"," 94.8"," 13.9"," aug"," 42"," 20.3"
"118"," sat"," 80.8"," 35.8"," 91.7"," 7.8"," mar"," 27"," 15.2"
"261"," mon"," 542.0"," 97.9"," 93.6"," 14.4"," aug"," 32"," 28.3"
"237"," sat"," 674.4"," 121.1"," 92.5"," 8.6"," sep"," 46"," 18.2"
"194"," wed"," 699.6"," 133.3"," 92.9"," 9.2"," sep"," 25"," 24.3"
"456"," mon"," 567.2"," 160.0"," 94.6"," 16.7"," jul"," 48"," 17.9"
"60"," fri"," 43.0"," 13.2"," 86.6"," 5.3"," feb"," 51"," 12.3"
"391"," mon"," 58.3"," 9.5"," 84.7"," 4.1"," feb"," 71"," 7.5"
"67"," fri"," 668.0"," 117.9"," 92.4"," 12.2"," sep"," 37"," 23.0"
"506"," thu"," 744.4"," 163.2"," 91.0"," 10.1"," aug"," 35"," 26.7"
"414"," sat"," 715.1"," 231.1"," 93.7"," 8.4"," aug"," 33"," 26.4"
"125"," fri"," 692.3"," 85.1"," 94.3"," 15.9"," sep"," 50"," 19.8"
"197"," thu"," 55.2"," 9.1"," 81.5"," 2.7"," apr"," 54"," 5.8"
"416"," thu"," 698.6"," 222.4"," 94.8"," 13.9"," aug"," 27"," 27.5"
"370"," sun"," 825.1"," 276.3"," 91.0"," 7.1"," sep"," 77"," 13.8"
"500"," tue"," 671.2"," 181.1"," 96.1"," 14.3"," aug"," 63"," 27.3"
"134"," thu"," 685.2"," 80.9"," 93.7"," 17.9"," sep"," 42"," 17.6"
"201"," tue"," 692.6"," 129.5"," 91.0"," 7.0"," sep"," 33"," 21.6"
"360"," fri"," 789.7"," 122.0"," 92.5"," 10.2"," sep"," 39"," 21.1"
"79"," fri"," 529.8"," 108.0"," 90.1"," 12.5"," aug"," 66"," 14.7"
"210"," thu"," 685.2"," 80.9"," 93.7"," 17.9"," sep"," 26"," 23.2"
"505"," wed"," 689.1"," 139.4"," 94.5"," 20.0"," aug"," 29"," 28.9"
"16"," fri"," 713.9"," 141.2"," 93.3"," 13.9"," sep"," 44"," 22.9"
"402"," thu"," 731.7"," 88.2"," 91.1"," 8.3"," sep"," 46"," 22.8"
"63"," thu"," 466.6"," 75.3"," 93.0"," 7.7"," aug"," 35"," 18.8"
"508"," fri"," 752.6"," 166.9"," 91.0"," 7.1"," aug"," 41"," 25.9"
"490"," wed"," 605.8"," 141.3"," 95.1"," 17.7"," aug"," 58"," 20.6"
"253"," wed"," 666.7"," 157.3"," 93.1"," 13.5"," aug"," 37"," 22.1"
"330"," sat"," 751.5"," 102.3"," 92.2"," 8.4"," sep"," 27"," 23.5"
"327"," sat"," 751.5"," 102.3"," 92.2"," 8.4"," sep"," 27"," 24.1"
"80"," tue"," 561.6"," 121.2"," 91.0"," 7.0"," aug"," 19"," 21.6"
"139"," tue"," 313.4"," 48.3"," 85.8"," 3.9"," jul"," 42"," 18.0"
"213"," fri"," 692.3"," 85.1"," 94.3"," 15.9"," sep"," 47"," 20.1"
"328"," sat"," 751.5"," 102.3"," 92.2"," 8.4"," sep"," 32"," 21.2"
"497"," mon"," 661.8"," 175.5"," 96.2"," 16.8"," aug"," 26"," 32.6"
"13"," fri"," 665.3"," 70.8"," 63.5"," 0.8"," aug"," 72"," 17.0"
"379"," thu"," 30.6"," 18.9"," 90.9"," 8.0"," mar"," 51"," 8.7"
"169"," fri"," 97.8"," 48.3"," 91.2"," 12.5"," mar"," 26"," 14.6"
"30"," sun"," 728.6"," 149.3"," 93.5"," 8.1"," sep"," 39"," 22.8"
"145"," wed"," 513.3"," 99.9"," 95.5"," 13.2"," aug"," 32"," 23.8"
"351"," fri"," 745.3"," 99.0"," 92.1"," 9.6"," sep"," 75"," 10.1"
"211"," sat"," 686.9"," 43.7"," 90.6"," 6.7"," oct"," 25"," 18.4"
"378"," sat"," 715.1"," 231.1"," 93.7"," 8.4"," aug"," 42"," 21.9"
"111"," fri"," 57.3"," 19.5"," 85.9"," 2.8"," mar"," 43"," 13.7"
"72"," fri"," 692.3"," 85.1"," 94.3"," 15.9"," sep"," 37"," 17.7"
"234"," tue"," 671.9"," 73.4"," 84.4"," 3.2"," sep"," 36"," 24.3"
"293"," fri"," 466.3"," 100.2"," 91.6"," 6.3"," jul"," 40"," 22.9"
"452"," fri"," 649.9"," 196.8"," 90.5"," 16.3"," aug"," 88"," 11.8"
"447"," sun"," 664.5"," 203.2"," 92.0"," 8.1"," aug"," 70"," 19.1"
"449"," wed"," 844.0"," 284.9"," 89.7"," 10.1"," sep"," 77"," 10.5"
"113"," sun"," 704.4"," 90.0"," 89.7"," 4.8"," sep"," 39"," 22.8"
"375"," fri"," 855.3"," 290.0"," 90.3"," 7.4"," sep"," 78"," 10.3"
"355"," fri"," 745.3"," 99.0"," 92.1"," 9.6"," sep"," 50"," 18.7"
"99"," sun"," 601.4"," 142.4"," 91.4"," 10.6"," aug"," 87"," 11.6"
"222"," fri"," 713.9"," 141.2"," 93.3"," 13.9"," sep"," 49"," 18.6"
"160"," fri"," 668.0"," 117.9"," 92.4"," 12.2"," sep"," 34"," 19.0"
"390"," fri"," 706.7"," 227.0"," 94.8"," 12.0"," aug"," 34"," 23.3"
"11"," sat"," 698.6"," 88.0"," 92.5"," 7.1"," sep"," 51"," 17.8"
"280"," mon"," 349.7"," 25.4"," 85.4"," 2.6"," dec"," 21"," 4.6"
"151"," fri"," 433.3"," 56.4"," 92.5"," 7.1"," jun"," 39"," 23.2"
"252"," wed"," 666.7"," 157.3"," 93.1"," 13.5"," aug"," 36"," 24.0"
"1"," fri"," 94.3"," 26.2"," 86.2"," 5.1"," mar"," 51"," 8.2"
"344"," mon"," 807.1"," 130.1"," 91.5"," 7.5"," sep"," 51"," 15.9"
"334"," mon"," 721.1"," 87.7"," 92.1"," 9.5"," sep"," 54"," 18.1"
"19"," wed"," 70.8"," 27.9"," 89.2"," 6.3"," mar"," 35"," 15.9"
"263"," fri"," 573.0"," 112.4"," 91.6"," 8.9"," aug"," 42"," 21.4"
"269"," tue"," 658.2"," 152.6"," 92.1"," 14.3"," aug"," 32"," 21.0"
"61"," sun"," 102.2"," 51.3"," 89.3"," 9.6"," mar"," 39"," 11.5"
"157"," sat"," 721.4"," 145.4"," 93.4"," 8.1"," sep"," 27"," 28.6"
"204"," wed"," 673.8"," 37.9"," 91.4"," 5.2"," oct"," 37"," 20.2"
"46"," wed"," 692.3"," 85.1"," 94.3"," 15.9"," sep"," 24"," 25.9"
"43"," tue"," 647.1"," 108.3"," 94.8"," 17.0"," aug"," 54"," 16.6"
"130"," sun"," 691.8"," 46.5"," 92.6"," 8.8"," oct"," 35"," 15.4"
"8"," mon"," 608.2"," 145.4"," 91.5"," 10.7"," aug"," 86"," 8.0"
"352"," fri"," 745.3"," 99.0"," 92.1"," 9.6"," sep"," 53"," 15.4"
"52"," sun"," 631.2"," 99.6"," 90.2"," 6.3"," aug"," 34"," 21.5"
"311"," sun"," 758.1"," 105.8"," 92.4"," 9.9"," sep"," 27"," 25.3"
"472"," fri"," 73.7"," 25.4"," 89.6"," 5.7"," may"," 40"," 18.0"
"283"," sun"," 353.5"," 27.5"," 84.9"," 3.4"," feb"," 51"," 4.2"
"397"," sun"," 750.5"," 96.7"," 90.5"," 11.4"," sep"," 55"," 20.4"
"257"," sat"," 581.1"," 117.2"," 94.2"," 11.0"," aug"," 41"," 23.9"
"512"," sun"," 665.6"," 56.7"," 81.6"," 1.9"," aug"," 35"," 27.8"
"221"," sun"," 631.2"," 99.6"," 90.2"," 6.3"," aug"," 59"," 16.2"
"493"," fri"," 633.6"," 158.0"," 95.9"," 11.3"," aug"," 27"," 32.4"
"122"," mon"," 608.2"," 145.4"," 91.5"," 10.7"," aug"," 43"," 17.1"
"212"," sat"," 594.2"," 139.4"," 93.5"," 20.3"," aug"," 96"," 5.1"
"368"," tue"," 812.1"," 132.3"," 91.1"," 12.5"," sep"," 27"," 16.4"
"507"," fri"," 752.6"," 166.9"," 91.0"," 7.1"," aug"," 73"," 18.5"
"458"," wed"," 635.9"," 191.4"," 91.7"," 7.8"," aug"," 50"," 19.9"
"346"," mon"," 807.1"," 130.1"," 91.5"," 7.5"," sep"," 43"," 16.8"
"2"," tue"," 669.1"," 35.4"," 90.6"," 6.7"," oct"," 33"," 18.0"
"45"," wed"," 735.7"," 82.9"," 90.1"," 6.2"," sep"," 74"," 12.9"
"176"," sat"," 624.2"," 96.9"," 90.2"," 8.9"," aug"," 39"," 20.3"
"322"," thu"," 783.5"," 119.0"," 92.8"," 7.5"," sep"," 28"," 16.8"
"440"," fri"," 738.1"," 91.3"," 91.1"," 7.2"," sep"," 46"," 19.1"
"73"," fri"," 77.5"," 33.3"," 91.7"," 9.0"," mar"," 25"," 15.6"
"381"," wed"," 458.8"," 101.3"," 93.7"," 11.9"," jul"," 39"," 19.3"
"444"," fri"," 368.3"," 80.9"," 90.7"," 16.8"," jul"," 78"," 14.8"
"455"," thu"," 753.8"," 248.4"," 91.6"," 6.3"," aug"," 56"," 16.8"
"343"," mon"," 807.1"," 130.1"," 91.5"," 7.5"," sep"," 37"," 20.6"
"273"," tue"," 658.2"," 152.6"," 92.1"," 14.3"," aug"," 47"," 20.2"
"218"," mon"," 709.9"," 91.8"," 88.6"," 7.1"," sep"," 73"," 12.4"
"4"," fri"," 77.5"," 33.3"," 91.7"," 9.0"," mar"," 97"," 8.3"
"434"," sun"," 723.1"," 235.1"," 93.6"," 10.1"," aug"," 66"," 20.9"
"18"," mon"," 664.2"," 32.8"," 84.9"," 3.0"," oct"," 47"," 16.7"
"415"," sun"," 723.1"," 235.1"," 93.6"," 10.1"," aug"," 50"," 24.1"
"266"," tue"," 550.3"," 102.2"," 93.7"," 14.6"," aug"," 54"," 22.1"
"268"," tue"," 658.2"," 152.6"," 92.1"," 14.3"," aug"," 24"," 23.7"
"314"," wed"," 777.1"," 115.4"," 92.6"," 8.8"," sep"," 27"," 24.3"
"177"," thu"," 55.2"," 9.1"," 81.5"," 2.7"," apr"," 54"," 5.8"
"417"," tue"," 575.8"," 164.1"," 92.7"," 8.9"," jul"," 39"," 26.3"
"51"," thu"," 706.4"," 137.0"," 92.9"," 9.2"," sep"," 17"," 20.8"
"409"," fri"," 855.3"," 290.0"," 90.3"," 7.4"," sep"," 44"," 19.9"
"47"," mon"," 686.5"," 126.5"," 90.9"," 7.0"," sep"," 70"," 14.7"
"358"," fri"," 789.7"," 122.0"," 92.5"," 10.2"," sep"," 55"," 15.9"
"84"," wed"," 654.1"," 111.2"," 92.1"," 9.6"," aug"," 47"," 16.6"
"94"," sun"," 601.4"," 142.4"," 91.4"," 10.6"," aug"," 43"," 18.2"
"143"," fri"," 529.8"," 108.0"," 90.1"," 12.5"," aug"," 51"," 21.2"
"468"," wed"," 41.1"," 18.5"," 90.2"," 7.3"," mar"," 41"," 11.2"
"403"," fri"," 706.7"," 227.0"," 94.8"," 12.0"," aug"," 36"," 25.0"
"411"," fri"," 52.8"," 7.3"," 84.1"," 2.7"," feb"," 42"," 14.7"
"471"," sun"," 25.6"," 14.6"," 91.0"," 12.3"," apr"," 27"," 17.6"
"486"," mon"," 596.3"," 135.5"," 95.0"," 21.3"," aug"," 28"," 30.6"
"288"," sat"," 474.9"," 104.2"," 91.6"," 9.0"," jul"," 49"," 22.1"
"74"," tue"," 614.5"," 147.3"," 88.8"," 9.0"," aug"," 43"," 17.3"
"359"," fri"," 789.7"," 122.0"," 92.5"," 10.2"," sep"," 39"," 19.7"
"215"," sat"," 80.8"," 35.8"," 91.7"," 7.8"," mar"," 27"," 17.0"
"220"," mon"," 86.6"," 39.7"," 90.1"," 6.2"," mar"," 27"," 15.2"
"44"," sat"," 698.6"," 88.0"," 92.5"," 7.1"," sep"," 48"," 19.6"
"155"," sat"," 721.4"," 145.4"," 93.4"," 8.1"," sep"," 27"," 29.6"
"345"," mon"," 807.1"," 130.1"," 91.5"," 7.5"," sep"," 66"," 12.2"
"446"," sun"," 100.7"," 47.9"," 94.0"," 10.7"," aug"," 80"," 17.3"
"116"," tue"," 67.6"," 25.7"," 88.1"," 3.8"," mar"," 27"," 15.5"
"121"," mon"," 608.2"," 145.4"," 91.5"," 10.7"," aug"," 74"," 10.3"
"282"," tue"," 349.7"," 25.4"," 85.4"," 2.6"," dec"," 24"," 5.1"
"432"," sat"," 605.3"," 178.0"," 92.1"," 9.6"," aug"," 40"," 23.3"
"372"," wed"," 520.5"," 133.6"," 91.9"," 8.0"," jul"," 58"," 14.2"
"315"," wed"," 777.1"," 115.4"," 92.6"," 8.8"," sep"," 41"," 19.7"
"249"," wed"," 666.7"," 157.3"," 93.1"," 13.5"," aug"," 28"," 28.7"
"366"," tue"," 770.3"," 111.7"," 91.9"," 6.5"," sep"," 45"," 19.6"
"96"," sun"," 704.4"," 90.0"," 89.7"," 4.8"," sep"," 64"," 17.8"
"184"," mon"," 696.1"," 48.5"," 91.7"," 11.1"," oct"," 45"," 16.8"
"492"," thu"," 624.1"," 152.0"," 95.8"," 13.8"," aug"," 21"," 32.4"
"356"," fri"," 745.3"," 99.0"," 92.1"," 9.6"," sep"," 35"," 20.8"
"460"," sat"," 819.1"," 273.8"," 91.6"," 7.7"," aug"," 72"," 15.5"
"146"," thu"," 578.8"," 131.7"," 95.2"," 10.4"," aug"," 22"," 27.4"
"69"," fri"," 668.0"," 117.9"," 92.4"," 12.2"," sep"," 33"," 19.6"
"473"," mon"," 229.0"," 96.2"," 88.2"," 4.7"," jun"," 79"," 14.3"
"229"," sun"," 728.6"," 149.3"," 93.5"," 8.1"," sep"," 26"," 28.3"
"336"," mon"," 764.0"," 108.4"," 91.6"," 6.2"," sep"," 86"," 9.8"
"15"," wed"," 699.6"," 133.3"," 92.9"," 9.2"," sep"," 21"," 26.4"
"244"," sun"," 700.7"," 175.1"," 91.8"," 13.8"," aug"," 73"," 21.9"
"365"," tue"," 770.3"," 111.7"," 91.9"," 6.5"," sep"," 35"," 21.1"
"410"," tue"," 450.2"," 96.2"," 92.3"," 12.1"," jul"," 31"," 23.4"
"209"," fri"," 668.0"," 117.9"," 92.4"," 12.2"," sep"," 33"," 19.6"
"22"," mon"," 724.3"," 78.5"," 91.8"," 9.2"," sep"," 38"," 19.1"
"112"," fri"," 77.5"," 33.3"," 91.7"," 9.0"," mar"," 18"," 18.8"
"437"," mon"," 672.6"," 207.0"," 92.1"," 8.2"," aug"," 35"," 26.8"
"233"," tue"," 692.6"," 129.5"," 91.0"," 7.0"," sep"," 43"," 18.7"
"459"," sat"," 715.1"," 231.1"," 93.7"," 8.4"," aug"," 64"," 18.9"
"217"," sun"," 680.7"," 124.1"," 92.4"," 8.5"," sep"," 60"," 16.9"
"236"," sun"," 601.4"," 142.4"," 91.4"," 10.6"," aug"," 41"," 19.6"
"433"," thu"," 698.6"," 222.4"," 94.8"," 13.9"," aug"," 38"," 23.9"
"408"," sat"," 55.0"," 8.2"," 84.7"," 2.9"," feb"," 46"," 14.2"
"484"," sun"," 587.1"," 130.3"," 94.9"," 14.1"," aug"," 27"," 31.0"
"385"," sat"," 819.1"," 273.8"," 91.6"," 7.7"," aug"," 44"," 21.3"
"421"," wed"," 635.9"," 191.4"," 91.7"," 7.8"," aug"," 36"," 26.2"
"262"," fri"," 573.0"," 112.4"," 91.6"," 8.9"," aug"," 84"," 11.2"
"491"," wed"," 605.8"," 141.3"," 95.1"," 17.7"," aug"," 33"," 28.7"
"98"," sat"," 15.5"," 2.4"," 69.0"," 0.7"," mar"," 24"," 17.4"
"224"," fri"," 309.9"," 150.3"," 88.3"," 6.8"," jul"," 79"," 13.4"
"152"," sun"," 355.2"," 68.6"," 90.1"," 7.2"," jul"," 29"," 24.8"
"495"," sat"," 643.0"," 164.0"," 96.0"," 14.0"," aug"," 30"," 30.8"
"135"," tue"," 67.6"," 25.7"," 88.1"," 3.8"," mar"," 38"," 14.9"
"503"," tue"," 671.2"," 181.1"," 96.1"," 14.3"," aug"," 69"," 20.7"
"302"," mon"," 298.1"," 93.3"," 90.4"," 7.5"," jun"," 39"," 19.1"
"389"," fri"," 706.7"," 227.0"," 94.8"," 12.0"," aug"," 34"," 23.3"
"404"," thu"," 643.0"," 194.1"," 90.7"," 6.8"," aug"," 41"," 21.3"
"54"," wed"," 654.1"," 111.2"," 92.1"," 9.6"," aug"," 42"," 20.4"
"75"," fri"," 713.9"," 141.2"," 93.3"," 13.9"," sep"," 30"," 27.6"
"338"," mon"," 764.0"," 108.4"," 91.6"," 6.2"," sep"," 34"," 23.0"
"259"," sat"," 692.3"," 170.9"," 91.8"," 13.7"," aug"," 59"," 20.6"
"287"," wed"," 437.7"," 183.1"," 91.2"," 12.5"," jul"," 90"," 12.6"
"115"," tue"," 67.6"," 25.7"," 88.1"," 3.8"," mar"," 27"," 15.8"
"271"," tue"," 658.2"," 152.6"," 92.1"," 14.3"," aug"," 56"," 21.8"
"453"," mon"," 730.6"," 238.2"," 91.5"," 7.5"," aug"," 65"," 17.7"
"256"," thu"," 694.8"," 77.0"," 87.5"," 5.0"," aug"," 46"," 22.3"
"203"," sun"," 32.1"," 8.7"," 83.9"," 2.1"," feb"," 68"," 8.8"
"174"," mon"," 686.5"," 126.5"," 90.9"," 7.0"," sep"," 39"," 17.7"
"279"," mon"," 349.7"," 25.4"," 85.4"," 2.6"," dec"," 21"," 4.6"
"173"," sun"," 601.4"," 142.4"," 91.4"," 10.6"," aug"," 39"," 20.1"
"183"," sun"," 48.3"," 15.6"," 86.8"," 3.9"," feb"," 53"," 12.4"
"58"," sun"," 691.8"," 46.5"," 92.6"," 8.8"," oct"," 50"," 13.8"
"260"," sat"," 692.3"," 170.9"," 91.8"," 13.7"," aug"," 40"," 23.7"
"509"," fri"," 752.6"," 166.9"," 91.0"," 7.1"," aug"," 41"," 25.9"
"186"," tue"," 692.6"," 129.5"," 91.0"," 7.0"," sep"," 46"," 17.6"
"515"," sun"," 665.6"," 56.7"," 81.6"," 1.9"," aug"," 70"," 21.2"
"254"," thu"," 565.5"," 109.2"," 91.9"," 8.0"," aug"," 38"," 21.4"
"419"," sun"," 664.5"," 203.2"," 92.0"," 8.1"," aug"," 42"," 24.9"
"148"," tue"," 671.9"," 73.4"," 84.4"," 3.2"," sep"," 28"," 24.2"
"223"," mon"," 103.8"," 52.2"," 87.6"," 5.0"," mar"," 46"," 11.0"
"86"," thu"," 706.4"," 137.0"," 92.9"," 9.2"," sep"," 15"," 21.5"
"89"," sun"," 728.6"," 149.3"," 93.5"," 8.1"," sep"," 36"," 25.3"
"78"," mon"," 103.8"," 52.2"," 87.6"," 5.0"," mar"," 72"," 8.3"
"265"," fri"," 684.4"," 167.6"," 94.3"," 13.0"," aug"," 53"," 21.8"
"216"," sat"," 80.8"," 35.8"," 91.7"," 7.8"," mar"," 27"," 17.0"
"243"," sun"," 589.9"," 122.3"," 94.2"," 12.9"," aug"," 66"," 15.4"
"462"," sat"," 715.1"," 231.1"," 93.7"," 8.4"," aug"," 64"," 18.9"
"189"," sat"," 89.4"," 41.9"," 90.8"," 7.9"," mar"," 42"," 13.3"
"107"," thu"," 74.3"," 30.7"," 91.4"," 7.5"," mar"," 29"," 18.2"
"149"," tue"," 647.1"," 108.3"," 94.8"," 17.0"," aug"," 43"," 17.4"
"27"," fri"," 668.0"," 117.9"," 92.4"," 12.2"," sep"," 34"," 19.0"
"141"," mon"," 686.5"," 126.5"," 90.9"," 7.0"," sep"," 39"," 21.9"
"412"," fri"," 43.6"," 3.2"," 84.6"," 3.3"," feb"," 53"," 8.2"
"396"," sun"," 56.9"," 9.0"," 85.0"," 3.5"," feb"," 62"," 10.1"
"119"," mon"," 86.6"," 39.7"," 90.1"," 6.2"," mar"," 30"," 10.6"
"59"," mon"," 34.0"," 9.3"," 84.0"," 2.1"," feb"," 40"," 13.9"
"296"," sun"," 430.8"," 180.4"," 93.1"," 11.0"," jun"," 48"," 22.2"
"376"," sat"," 744.4"," 94.3"," 91.2"," 8.4"," sep"," 57"," 15.4"
"289"," sat"," 474.9"," 104.2"," 91.6"," 9.0"," jul"," 32"," 24.2"
"20"," sat"," 97.1"," 27.4"," 86.3"," 5.1"," apr"," 44"," 9.3"
"199"," tue"," 692.6"," 129.5"," 91.0"," 7.0"," sep"," 59"," 13.9"
"427"," thu"," 753.8"," 248.4"," 91.6"," 6.3"," aug"," 56"," 20.4"
"195"," tue"," 647.1"," 108.3"," 94.8"," 17.0"," aug"," 22"," 24.6"
"242"," fri"," 85.3"," 23.3"," 83.0"," 2.3"," apr"," 20"," 16.7"
"337"," mon"," 764.0"," 108.4"," 91.6"," 6.2"," sep"," 44"," 19.3"
"200"," mon"," 665.3"," 70.8"," 63.5"," 0.8"," sep"," 38"," 22.6"
"167"," wed"," 654.1"," 111.2"," 92.1"," 9.6"," aug"," 47"," 16.6"
"240"," sun"," 7.9"," 3.0"," 81.9"," 3.5"," apr"," 75"," 13.4"
"190"," sun"," 92.4"," 44.0"," 90.7"," 5.5"," mar"," 60"," 11.5"
"333"," sat"," 795.3"," 124.4"," 91.2"," 8.5"," sep"," 41"," 17.1"
"7"," mon"," 495.6"," 88.9"," 92.3"," 8.5"," aug"," 27"," 24.1"
"226"," sun"," 728.6"," 149.3"," 93.5"," 8.1"," sep"," 39"," 22.9"
"488"," tue"," 605.8"," 141.3"," 95.1"," 17.7"," aug"," 34"," 26.4"
"150"," thu"," 685.2"," 80.9"," 93.7"," 17.9"," sep"," 25"," 23.7"
"413"," mon"," 442.1"," 92.1"," 92.3"," 9.8"," jul"," 27"," 22.8"
"281"," fri"," 352.6"," 26.7"," 84.7"," 4.1"," dec"," 59"," 2.2"
"85"," thu"," 661.3"," 114.3"," 91.7"," 6.3"," aug"," 45"," 20.2"
"207"," sat"," 594.2"," 139.4"," 93.5"," 20.3"," aug"," 31"," 22.9"
"100"," sun"," 601.4"," 142.4"," 91.4"," 10.6"," aug"," 39"," 19.8"
"502"," tue"," 671.2"," 181.1"," 96.1"," 14.3"," aug"," 65"," 21.6"
"464"," tue"," 16.2"," 4.4"," 75.1"," 1.9"," feb"," 82"," 4.6"
"295"," tue"," 440.9"," 88.8"," 92.3"," 8.5"," jul"," 67"," 17.1"
"317"," thu"," 739.4"," 96.2"," 92.4"," 8.6"," sep"," 24"," 18.6"
"297"," sun"," 290.8"," 89.5"," 90.4"," 6.4"," jun"," 46"," 14.3"
"131"," sat"," 87.2"," 21.5"," 68.2"," 0.8"," feb"," 40"," 15.4"
"36"," tue"," 730.2"," 80.7"," 90.3"," 6.3"," sep"," 62"," 18.2"
"40"," tue"," 67.6"," 25.7"," 88.1"," 3.8"," mar"," 43"," 14.1"
"198"," thu"," 706.4"," 137.0"," 92.9"," 9.2"," sep"," 15"," 21.5"
"347"," mon"," 807.1"," 130.1"," 91.5"," 7.5"," sep"," 35"," 21.3"
"68"," fri"," 668.0"," 117.9"," 92.4"," 12.2"," sep"," 33"," 19.6"
"341"," mon"," 764.0"," 108.4"," 91.6"," 6.2"," sep"," 44"," 19.3"
"179"," wed"," 735.7"," 82.9"," 90.1"," 6.2"," sep"," 45"," 18.3"
"307"," sun"," 714.3"," 84.1"," 89.6"," 5.7"," sep"," 53"," 17.1"
"445"," fri"," 855.3"," 290.0"," 90.3"," 7.4"," sep"," 58"," 16.2"
"193"," tue"," 647.1"," 108.3"," 94.8"," 17.0"," aug"," 22"," 24.6"
"466"," sat"," 15.3"," 3.6"," 79.5"," 1.8"," feb"," 59"," 4.6"
"38"," fri"," 682.6"," 41.5"," 90.0"," 8.7"," oct"," 60"," 11.3"
"319"," thu"," 783.5"," 119.0"," 92.8"," 7.5"," sep"," 27"," 21.6"
"392"," fri"," 738.1"," 91.3"," 91.1"," 7.2"," sep"," 46"," 20.7"
"298"," sun"," 290.8"," 89.5"," 90.4"," 6.4"," jun"," 45"," 15.4"
"187"," sun"," 102.2"," 51.3"," 89.3"," 9.6"," mar"," 39"," 11.5"
"454"," thu"," 803.3"," 266.2"," 89.4"," 5.6"," aug"," 54"," 17.4"
"291"," sat"," 474.9"," 104.2"," 91.6"," 9.0"," jul"," 53"," 18.7"
"57"," tue"," 730.2"," 80.7"," 90.3"," 6.3"," sep"," 63"," 17.8"
"39"," sat"," 686.9"," 43.7"," 90.6"," 6.7"," oct"," 27"," 17.8"
"400"," wed"," 297.7"," 49.5"," 93.3"," 14.0"," jun"," 34"," 28.0"
"205"," sat"," 100.4"," 50.1"," 90.6"," 7.8"," mar"," 64"," 15.1"
"306"," sun"," 714.3"," 84.1"," 89.6"," 5.7"," sep"," 52"," 19.0"
"6"," sun"," 488.0"," 85.3"," 92.3"," 14.7"," aug"," 29"," 22.2"
"71"," fri"," 97.8"," 48.3"," 91.2"," 12.5"," mar"," 27"," 15.8"
"126"," sun"," 691.8"," 46.5"," 92.6"," 8.8"," oct"," 24"," 20.6"
"387"," sun"," 750.5"," 96.7"," 90.5"," 11.4"," sep"," 55"," 20.6"
"228"," sat"," 480.8"," 81.8"," 92.2"," 11.9"," aug"," 34"," 20.1"
"208"," tue"," 692.6"," 129.5"," 91.0"," 7.0"," sep"," 37"," 20.7"
"156"," sun"," 647.1"," 108.3"," 94.8"," 17.0"," aug"," 47"," 16.4"
"407"," sat"," 860.6"," 291.3"," 87.1"," 4.0"," sep"," 67"," 17.0"
"231"," wed"," 699.6"," 133.3"," 92.9"," 9.2"," sep"," 21"," 26.4"
"81"," sun"," 601.4"," 142.4"," 91.4"," 10.6"," aug"," 39"," 19.5"
"394"," tue"," 25.6"," 15.0"," 93.4"," 11.4"," mar"," 19"," 15.2"
"227"," mon"," 696.1"," 48.5"," 91.7"," 11.1"," oct"," 44"," 16.1"
"436"," sat"," 376.6"," 84.7"," 90.8"," 5.6"," jul"," 51"," 23.8"
"29"," sat"," 721.4"," 145.4"," 93.4"," 8.1"," sep"," 24"," 30.2"
"182"," mon"," 664.2"," 32.8"," 84.9"," 3.0"," oct"," 32"," 19.1"
"172"," wed"," 609.6"," 90.4"," 85.6"," 6.6"," aug"," 50"," 17.4"
"511"," fri"," 752.6"," 166.9"," 91.0"," 7.1"," aug"," 62"," 18.2"
"300"," sat"," 233.8"," 71.0"," 53.4"," 0.4"," jun"," 90"," 10.6"
"64"," sun"," 631.2"," 99.6"," 90.2"," 6.3"," aug"," 33"," 20.8"
"37"," tue"," 669.1"," 35.4"," 90.6"," 6.7"," oct"," 24"," 21.7"
"290"," sat"," 474.9"," 104.2"," 91.6"," 9.0"," jul"," 30"," 24.3"
"76"," thu"," 26.6"," 6.8"," 84.2"," 7.7"," feb"," 79"," 6.7"
"9"," tue"," 692.6"," 129.5"," 91.0"," 7.0"," sep"," 63"," 13.1"
"494"," fri"," 633.6"," 158.0"," 95.9"," 11.3"," aug"," 29"," 27.5"
"357"," fri"," 745.3"," 99.0"," 92.1"," 9.6"," sep"," 35"," 20.8"
"442"," mon"," 672.6"," 207.0"," 92.1"," 8.2"," aug"," 29"," 25.5"
"405"," wed"," 725.1"," 84.8"," 87.9"," 3.7"," sep"," 34"," 21.8"
"312"," sun"," 758.1"," 105.8"," 92.4"," 9.9"," sep"," 28"," 24.8"
"388"," thu"," 30.6"," 18.9"," 90.9"," 8.0"," mar"," 48"," 11.6"
"469"," thu"," 43.5"," 20.6"," 91.3"," 8.5"," mar"," 27"," 13.3"
"270"," tue"," 658.2"," 152.6"," 92.1"," 14.3"," aug"," 53"," 19.1"
"384"," thu"," 753.8"," 248.4"," 91.6"," 6.3"," aug"," 58"," 20.5"
"168"," wed"," 570.5"," 127.1"," 96.0"," 16.5"," aug"," 33"," 23.4"
"354"," fri"," 745.3"," 99.0"," 92.1"," 9.6"," sep"," 47"," 19.8"
"258"," sat"," 581.1"," 117.2"," 94.2"," 11.0"," aug"," 44"," 21.4"
"349"," fri"," 745.3"," 99.0"," 92.1"," 9.6"," sep"," 57"," 17.4"
"443"," mon"," 41.6"," 24.9"," 87.9"," 3.7"," apr"," 64"," 10.9"
"335"," mon"," 764.0"," 108.4"," 91.6"," 6.2"," sep"," 51"," 18.0"
"230"," sat"," 480.8"," 81.8"," 92.2"," 11.9"," aug"," 43"," 16.4"
"367"," tue"," 812.1"," 132.3"," 91.1"," 12.5"," sep"," 38"," 15.9"
"14"," mon"," 686.5"," 126.5"," 90.9"," 7.0"," sep"," 42"," 21.3"
"180"," tue"," 614.5"," 147.3"," 88.8"," 9.0"," aug"," 66"," 14.4"
"267"," tue"," 607.1"," 131.7"," 94.3"," 22.7"," aug"," 55"," 19.4"
"342"," mon"," 770.3"," 111.7"," 91.9"," 6.5"," sep"," 51"," 15.7"
"457"," thu"," 753.8"," 248.4"," 91.6"," 6.3"," aug"," 59"," 16.6"
"108"," sun"," 631.2"," 99.6"," 90.2"," 6.3"," aug"," 33"," 21.4"
"235"," sat"," 674.4"," 121.1"," 92.5"," 8.6"," sep"," 25"," 17.7"
"424"," sat"," 744.4"," 94.3"," 91.2"," 8.4"," sep"," 48"," 22.3"
"206"," thu"," 706.4"," 137.0"," 92.9"," 9.2"," sep"," 34"," 22.1"
"127"," mon"," 103.8"," 52.2"," 87.6"," 5.0"," mar"," 49"," 9.0"
"171"," wed"," 699.6"," 133.3"," 92.9"," 9.2"," sep"," 35"," 21.9"
"339"," mon"," 764.0"," 108.4"," 91.6"," 6.2"," sep"," 35"," 22.7"
"188"," mon"," 686.5"," 126.5"," 90.9"," 7.0"," sep"," 42"," 21.0"
"93"," sun"," 488.0"," 85.3"," 92.3"," 14.7"," aug"," 32"," 20.8"
"418"," wed"," 28.3"," 17.3"," 93.4"," 9.9"," mar"," 24"," 13.8"
"326"," sat"," 751.5"," 102.3"," 92.2"," 8.4"," sep"," 27"," 24.2"
"170"," thu"," 578.8"," 131.7"," 95.2"," 10.4"," aug"," 45"," 20.7"
"406"," tue"," 680.9"," 212.1"," 94.6"," 9.5"," aug"," 27"," 27.9"
"513"," sun"," 665.6"," 56.7"," 81.6"," 1.9"," aug"," 32"," 27.8"
"316"," wed"," 817.5"," 134.7"," 91.2"," 7.2"," sep"," 30"," 18.5"
"56"," thu"," 706.4"," 137.0"," 92.9"," 9.2"," sep"," 24"," 27.7"
"386"," sun"," 613.0"," 181.3"," 91.6"," 7.6"," aug"," 50"," 20.9"
"158"," wed"," 654.1"," 111.2"," 92.1"," 9.6"," aug"," 45"," 18.4"
"348"," fri"," 745.3"," 99.0"," 92.1"," 9.6"," sep"," 75"," 10.1"
"142"," wed"," 513.3"," 99.9"," 95.5"," 13.2"," aug"," 31"," 23.3"
"510"," fri"," 752.6"," 166.9"," 91.0"," 7.1"," aug"," 71"," 21.1"
"499"," tue"," 671.2"," 181.1"," 96.1"," 14.3"," aug"," 26"," 33.3"
"26"," sun"," 601.4"," 142.4"," 91.4"," 10.6"," aug"," 60"," 16.3"
"276"," thu"," 352.0"," 26.4"," 84.6"," 2.0"," dec"," 61"," 5.1"
"21"," tue"," 692.6"," 129.5"," 91.0"," 7.0"," sep"," 40"," 18.3"
"496"," mon"," 661.8"," 175.5"," 96.2"," 16.8"," aug"," 42"," 23.9"
"250"," wed"," 666.7"," 157.3"," 93.1"," 13.5"," aug"," 40"," 21.7"
"175"," sat"," 624.2"," 96.9"," 90.2"," 8.9"," aug"," 53"," 14.2"
"109"," sat"," 698.6"," 88.0"," 92.5"," 7.1"," sep"," 45"," 20.3"
"17"," sat"," 80.8"," 35.8"," 91.7"," 7.8"," mar"," 27"," 15.1"
"104"," sat"," 674.4"," 121.1"," 92.5"," 8.6"," sep"," 29"," 24.1"
"102"," tue"," 614.5"," 147.3"," 88.8"," 9.0"," aug"," 66"," 14.4"
"305"," sat"," 113.8"," 28.0"," 85.1"," 3.5"," may"," 94"," 11.3"
"106"," fri"," 57.3"," 19.5"," 85.9"," 2.8"," mar"," 52"," 12.7"
"35"," mon"," 724.3"," 78.5"," 91.8"," 9.2"," sep"," 32"," 21.2"
"482"," thu"," 560.0"," 114.4"," 93.2"," 9.5"," jul"," 22"," 30.2"
"147"," mon"," 86.6"," 39.7"," 90.1"," 6.2"," mar"," 40"," 13.2"
"284"," wed"," 18.7"," 6.6"," 86.9"," 3.2"," feb"," 35"," 8.8"
"191"," fri"," 97.8"," 48.3"," 91.2"," 12.5"," mar"," 33"," 11.7"
"303"," fri"," 232.1"," 94.1"," 91.1"," 7.1"," jun"," 38"," 19.2"
"435"," fri"," 811.2"," 269.8"," 90.6"," 5.5"," aug"," 45"," 22.2"
"329"," sat"," 751.5"," 102.3"," 92.2"," 8.4"," sep"," 35"," 19.7"
"272"," tue"," 658.2"," 152.6"," 92.1"," 14.3"," aug"," 58"," 20.1"
"31"," fri"," 692.3"," 85.1"," 94.3"," 15.9"," sep"," 24"," 25.4"
"166"," thu"," 55.0"," 18.2"," 84.9"," 3.0"," mar"," 70"," 5.3"
"48"," mon"," 442.9"," 62.3"," 94.2"," 11.0"," jul"," 36"," 23.0"
"101"," sun"," 601.4"," 142.4"," 91.4"," 10.6"," aug"," 39"," 19.8"
"299"," wed"," 377.2"," 147.8"," 91.2"," 12.7"," jun"," 43"," 19.6"
"480"," mon"," 431.6"," 103.9"," 89.2"," 6.4"," jul"," 57"," 22.6"
"470"," sun"," 25.6"," 14.6"," 91.0"," 12.3"," apr"," 33"," 13.7"
"401"," wed"," 297.7"," 49.5"," 93.3"," 14.0"," jun"," 34"," 28.0"
"364"," tue"," 770.3"," 111.7"," 91.9"," 6.5"," sep"," 53"," 15.9"
"292"," sat"," 474.9"," 104.2"," 91.6"," 9.0"," jul"," 39"," 25.3"
"92"," fri"," 80.8"," 35.8"," 91.7"," 7.8"," mar"," 24"," 17.4"
"430"," sun"," 613.0"," 181.3"," 91.6"," 7.6"," aug"," 44"," 24.6"
"163"," sat"," 100.4"," 50.1"," 90.6"," 7.8"," mar"," 31"," 15.2"
"62"," sun"," 102.2"," 51.3"," 89.3"," 9.6"," mar"," 59"," 5.5"
"487"," tue"," 605.8"," 141.3"," 95.1"," 17.7"," aug"," 43"," 24.1"
"124"," tue"," 671.9"," 73.4"," 84.4"," 3.2"," sep"," 45"," 17.9"
"318"," thu"," 739.4"," 96.2"," 92.4"," 8.6"," sep"," 24"," 19.2"
"138"," mon"," 686.5"," 126.5"," 90.9"," 7.0"," sep"," 66"," 15.6"
"24"," sat"," 537.4"," 110.9"," 90.2"," 6.2"," aug"," 43"," 19.5"
"32"," mon"," 709.9"," 91.8"," 88.6"," 7.1"," sep"," 78"," 11.2"
"164"," sat"," 674.4"," 121.1"," 92.5"," 8.6"," sep"," 56"," 17.8"
"41"," tue"," 366.7"," 60.6"," 79.5"," 1.5"," jul"," 37"," 23.3"
"478"," sun"," 423.4"," 101.3"," 93.7"," 14.7"," jul"," 45"," 26.1"
"246"," sun"," 700.7"," 175.1"," 91.8"," 13.8"," aug"," 38"," 26.8"
"479"," sun"," 423.4"," 101.3"," 93.7"," 14.7"," jul"," 82"," 18.2"
"516"," sat"," 614.7"," 146.0"," 94.4"," 11.3"," aug"," 42"," 25.6"
"362"," fri"," 789.7"," 122.0"," 92.5"," 10.2"," sep"," 45"," 17.3"
"65"," mon"," 638.8"," 103.2"," 91.1"," 5.8"," aug"," 31"," 23.1"
"481"," thu"," 560.0"," 114.4"," 93.2"," 9.5"," jul"," 25"," 30.2"
"154"," fri"," 692.3"," 85.1"," 94.3"," 15.9"," sep"," 47"," 20.1"
"304"," fri"," 232.1"," 94.1"," 91.1"," 7.1"," jun"," 38"," 19.2"
"451"," wed"," 690.0"," 217.7"," 95.2"," 18.0"," aug"," 49"," 23.4"
"393"," sun"," 825.1"," 276.3"," 91.0"," 7.1"," sep"," 43"," 21.9"
"371"," sun"," 825.1"," 276.3"," 91.0"," 7.1"," sep"," 77"," 13.8"
"448"," wed"," 28.3"," 17.3"," 93.4"," 9.9"," mar"," 35"," 8.9"
"97"," sat"," 30.2"," 8.0"," 83.9"," 2.6"," feb"," 48"," 12.7"
"165"," sun"," 704.4"," 90.0"," 89.7"," 4.8"," sep"," 67"," 17.8"
"301"," mon"," 298.1"," 93.3"," 90.4"," 7.5"," jun"," 25"," 20.7"
"192"," thu"," 578.8"," 131.7"," 95.2"," 10.4"," aug"," 28"," 24.2"
"159"," wed"," 654.1"," 111.2"," 92.1"," 9.6"," aug"," 35"," 20.5"
"285"," fri"," 15.8"," 4.9"," 85.2"," 6.3"," feb"," 46"," 7.5"
"431"," thu"," 849.3"," 287.2"," 89.7"," 6.8"," sep"," 45"," 19.4"
"517"," tue"," 106.7"," 3.0"," 79.5"," 1.1"," nov"," 31"," 11.8"
"278"," mon"," 349.7"," 25.4"," 85.4"," 2.6"," dec"," 21"," 4.6"
"325"," thu"," 726.9"," 53.3"," 88.1"," 5.4"," sep"," 56"," 13.7"
"133"," sun"," 102.2"," 51.3"," 89.3"," 9.6"," mar"," 46"," 10.6"
"450"," sun"," 613.0"," 181.3"," 91.6"," 7.6"," aug"," 61"," 19.3"
"196"," fri"," 586.7"," 135.7"," 93.9"," 15.1"," aug"," 36"," 23.5"
"136"," sat"," 594.2"," 139.4"," 93.5"," 20.3"," aug"," 52"," 17.6"
"239"," sat"," 674.4"," 121.1"," 92.5"," 8.6"," sep"," 27"," 25.1"
"489"," tue"," 605.8"," 141.3"," 95.1"," 17.7"," aug"," 71"," 19.4"
"353"," fri"," 745.3"," 99.0"," 92.1"," 9.6"," sep"," 43"," 20.6"
"25"," sat"," 594.2"," 139.4"," 93.5"," 20.3"," aug"," 32"," 23.7"
"181"," sun"," 680.7"," 124.1"," 92.4"," 8.5"," sep"," 32"," 23.9"
"66"," thu"," 661.3"," 114.3"," 91.7"," 6.3"," aug"," 44"," 18.6"
"321"," thu"," 783.5"," 119.0"," 92.8"," 7.5"," sep"," 34"," 18.9"
"34"," sun"," 718.3"," 75.6"," 91.7"," 7.8"," sep"," 39"," 17.7"
"87"," thu"," 706.4"," 137.0"," 92.9"," 9.2"," sep"," 27"," 25.4"
"202"," sun"," 83.7"," 37.6"," 90.1"," 7.2"," mar"," 54"," 12.4"
"395"," mon"," 46.7"," 4.6"," 84.1"," 2.2"," feb"," 68"," 5.3"
"426"," thu"," 753.8"," 248.4"," 91.6"," 6.3"," aug"," 56"," 20.4"
"399"," sat"," 715.1"," 231.1"," 93.7"," 8.4"," aug"," 32"," 25.9"
"70"," fri"," 77.5"," 33.3"," 91.7"," 9.0"," mar"," 26"," 17.2"
"498"," tue"," 671.2"," 181.1"," 96.1"," 14.3"," aug"," 27"," 32.3"
"12"," sat"," 713.0"," 73.2"," 92.8"," 22.6"," sep"," 38"," 19.3"
"90"," sat"," 80.8"," 35.8"," 91.7"," 7.8"," mar"," 25"," 17.4"
"428"," mon"," 672.6"," 207.0"," 92.1"," 8.2"," aug"," 33"," 27.9"
"77"," fri"," 43.0"," 13.2"," 86.6"," 5.3"," feb"," 43"," 15.7"
"425"," sat"," 715.1"," 231.1"," 93.7"," 8.4"," aug"," 31"," 26.9"
"294"," tue"," 430.8"," 180.4"," 93.1"," 11.0"," jul"," 28"," 26.9"
"350"," fri"," 745.3"," 99.0"," 92.1"," 9.6"," sep"," 64"," 12.8"
"383"," wed"," 690.0"," 217.7"," 95.2"," 18.0"," aug"," 29"," 28.2"
"162"," thu"," 578.8"," 131.7"," 95.2"," 10.4"," aug"," 41"," 20.3"
"474"," sat"," 252.6"," 61.1"," 90.5"," 9.4"," jun"," 50"," 24.5"
"422"," wed"," 690.0"," 217.7"," 95.2"," 18.0"," aug"," 19"," 30.8"
"238"," tue"," 692.6"," 129.5"," 91.0"," 7.0"," sep"," 40"," 18.8"
"3"," sat"," 686.9"," 43.7"," 90.6"," 6.7"," oct"," 33"," 14.6"
"161"," mon"," 86.6"," 39.7"," 90.1"," 6.2"," mar"," 29"," 16.1"
"275"," wed"," 354.6"," 27.8"," 84.0"," 5.3"," dec"," 61"," 5.1"
"309"," sun"," 758.1"," 105.8"," 92.4"," 9.9"," sep"," 45"," 16.0"
"232"," sun"," 728.6"," 149.3"," 93.5"," 8.1"," sep"," 27"," 27.8"
"103"," tue"," 647.1"," 108.3"," 94.8"," 17.0"," aug"," 40"," 20.1"
