{
	"keyspaces":[
		{ 
			"Ip":"127.0.0.1",
			"Namekeyspace":"k1", 
			"Nametable":"pokerhand",
			"Descripcion":"DataSet Basico - 26.000 Registros"
		} ,
		{ 
			"Ip":"127.0.0.1",
			"Namekeyspace":"k2", 
			"Nametable":"accidentes",
			"Descripcion":"DataSet Intermedio - 500.000 Registros"
		} ,
		{ 
			"Ip":"127.0.0.1",
			"Namekeyspace":"k3", 
			"Nametable":"pokerhand",
			"Descripcion":"DataSet Intermedio - 500.000 Registros"
		}
	]
}


